"state","city"
"AGUASCALIENTES","AGUASCALIENTES"
"BAJA CALIFORNIA SUR","CABO SAN LUCAS"
"BAJA CALIFORNIA SUR","CD. CONSTITUCION"
"BAJA CALIFORNIA SUR","LA PAZ"
"BAJA CALIFORNIA SUR","LORETO"
"BAJA CALIFORNIA SUR","SAN JOSE DEL CABO"
"BAJA CALIFORNIA SUR","SANTA ROSALIA"
"BAJA CALIFORNIA","ENSENADA"
"BAJA CALIFORNIA","MEXICALI"
"BAJA CALIFORNIA","TECATE"
"BAJA CALIFORNIA","TIJUANA"
"CAMPECHE","CAMPECHE"
"CAMPECHE","CD. DEL CARMEN"
"CAMPECHE","OAXACA DE JUAREZ"
"CAMPECHE","SEYBAPLAYA"
"CHIAPAS","CD. CUAUHTEMOC"
"CHIAPAS","CD. HIDALGO"
"CHIAPAS","CHIAPA DE CORZO"
"CHIAPAS","CHIAPAS"
"CHIAPAS","CIUDAD CUAUHTEMOC"
"CHIAPAS","CIUDAD HIDALGO"
"CHIAPAS","COMITAN DE DOMINGUEZ"
"CHIAPAS","HUIXTLA"
"CHIAPAS","LA TRINITARIA"
"CHIAPAS","OAXACA DE JUAREZ"
"CHIAPAS","PALENQUE"
"CHIAPAS","PICHUCALCO"
"CHIAPAS","SAN CRISTOBAL DE LAS CASAS"
"CHIAPAS","TALISMAN"
"CHIAPAS","TAPACHULA"
"CHIAPAS","TUXTLA GUTIERREZ"
"CHIHUAHUA","CAMARGO"
"CHIHUAHUA","CD. CUAUHTEMOC"
"CHIHUAHUA","CD. JUAREZ"
"CHIHUAHUA","CHIHUAHUA"
"CHIHUAHUA","CUAUHTEMOC"
"CHIHUAHUA","DELICIAS"
"CHIHUAHUA","EL PORVENIR"
"CHIHUAHUA","GUERRERO"
"CHIHUAHUA","HIDALGO DEL PARRAL"
"CHIHUAHUA","JANOS"
"CHIHUAHUA","JIMENEZ"
"CHIHUAHUA","JUAREZ"
"CHIHUAHUA","MADERA"
"CHIHUAHUA","MEOQUI"
"CHIHUAHUA","NUEVO CASAS GRANDES"
"CHIHUAHUA","OAXACA DE JUAREZ"
"CHIHUAHUA","OJINAGA"
"CHIHUAHUA","PUERTO PALOMAS"
"COAHUILA","ALLENDE"
"COAHUILA","CD. ACU?A"
"COAHUILA","CD. ACU?A"
"COAHUILA","CIUDAD ACU?A"
"COAHUILA","FRONTERA"
"COAHUILA","MONCLOVA"
"COAHUILA","NAVA"
"COAHUILA","PIEDRAS NEGRAS"
"COAHUILA","RAMOS ARIZPE"
"COAHUILA","SALTILLO"
"COAHUILA","TORREON"
"COLIMA","COLIMA"
"COLIMA","MANZANILLO"
"COLIMA","OAXACA DE JUAREZ"
"COLIMA","TECOMAN"
"CPED","CPED"
"DISTRITO FEDERAL","ALVARO OBREGON"
"DISTRITO FEDERAL","AZCAPOTZALCO"
"DISTRITO FEDERAL","BENITO JUAREZ"
"DISTRITO FEDERAL","COYOACAN"
"DISTRITO FEDERAL","CUAUHTEMOC"
"DISTRITO FEDERAL","GUSTAVO A. MADERO"
"DISTRITO FEDERAL","IZTACALCO"
"DISTRITO FEDERAL","IZTAPALAPA"
"DISTRITO FEDERAL","MAGDALENA CONTRERAS"
"DISTRITO FEDERAL","MIGUEL HIDALGO"
"DISTRITO FEDERAL","TLALPAN"
"DISTRITO FEDERAL","VENUSTIANO CARRANZA"
"DISTRITO FEDERAL","XOCHIMILCO"
"DURANGO","DURANGO"
"DURANGO","EL VERGEL"
"ESTADO DE MEXICO","ATLACOMULCO"
"ESTADO DE MEXICO","CHICOLOAPAN"
"ESTADO DE MEXICO","CUAUTITLAN IZCALLI"
"ESTADO DE MEXICO","ECATEPEC"
"ESTADO DE MEXICO","EDO. DE MEXICO"
"ESTADO DE MEXICO","NAUCALPAN"
"ESTADO DE MEXICO","NEZAHUALCOYOTL"
"ESTADO DE MEXICO","OAXACA DE JUAREZ"
"ESTADO DE MEXICO","TENANCINGO"
"ESTADO DE MEXICO","TEXCOCO"
"ESTADO DE MEXICO","TLALNEPANTLA"
"ESTADO DE MEXICO","TOLUCA"
"ESTADO DE MEXICO","VALLE DE BRAVO"
"ESTADO DE MEXICO","VALLEJO"
"GUANAJUATO","CELAYA"
"GUANAJUATO","GUANAJUATO"
"GUANAJUATO","IRAPUATO"
"GUANAJUATO","LEON"
"GUANAJUATO","SALAMANCA"
"GUANAJUATO","SAN FRANCISCO DEL RINCON"
"GUANAJUATO","SILAO"
"GUERRERO","ACAPULCO"
"GUERRERO","CHILPANCINGO"
"GUERRERO","IGUALA"
"GUERRERO","ZIHUATANEJO"
"HIDALGO","ACTOPAN"
"HIDALGO","ATOTONILCO DE TULA"
"HIDALGO","CD. SAHAGUN"
"HIDALGO","HUEJUTLA DE REYES"
"HIDALGO","HUICHAPAN"
"HIDALGO","IXMIQUILPAN"
"HIDALGO","OAXACA DE JUAREZ"
"HIDALGO","PACHUCA"
"HIDALGO","TIZAYUCA"
"HIDALGO","TULA DE ALLENDE"
"HIDALGO","TULANCINGO DE BRAVO"
"JALISCO","ACATL?N DE Ju?rez"
"JALISCO","AHUALULCO DEL MERCADO"
"JALISCO","AMACUECA"
"JALISCO","AMATIT?N"
"JALISCO","AMECA"
"JALISCO","ARANDAS"
"JALISCO","ARENAL"
"JALISCO","ATEMAJAC DE BRIZUELA"
"JALISCO","ATENGO"
"JALISCO","ATENGUILLO"
"JALISCO","ATOTONILCO EL ALTO"
"JALISCO","ATOTONILCO"
"JALISCO","ATOYAC"
"JALISCO","AUTL?N DE NAVARRO"
"JALISCO","AUTLAN DE NAVARRO"
"JALISCO","AVATIC"
"JALISCO","AYOTLAN"
"JALISCO","AYUTLA"
"JALISCO","BOLA?OS"
"JALISCO","CA?ADAS DE OBREGON "
"JALISCO","CA?ADAS DE OBREGON "
"JALISCO","CAJITITL?N"
"JALISCO","CASIMIRO CASTILLO"
"JALISCO","CD. GUZMAN"
"JALISCO","CHAPALA"
"JALISCO","CHIMALTITAN"
"JALISCO","CHIQUILISTLAN"
"JALISCO","CIHUATL?N"
"JALISCO","CIUDAD GUZMAN"
"JALISCO","COCULA"
"JALISCO","COLOTL?N"
"JALISCO","CONCEPCI?N DE BUENOS AIRES"
"JALISCO","CUATLA"
"JALISCO","CUAUTITLAN IZCALLI"
"JALISCO","CUQUIO"
"JALISCO","DEGOLLADO"
"JALISCO","EJUTLA"
"JALISCO","EL GRULLO"
"JALISCO","EL LIMON"
"JALISCO","EL SALTO"
"JALISCO","EL TUITO"
"JALISCO","ETZATLAN"
"JALISCO","GOMEZ FARIAS"
"JALISCO","GUACHINANGO"
"JALISCO","GUADALAJARA"
"JALISCO","HOSTOTIPAQUILLO"
"JALISCO","HUEJUQUILLA EL ALTO"
"JALISCO","IXTLAHUACAN DEL R?O"
"JALISCO","JALISCO"
"JALISCO","JALOSTOTITL?N"
"JALISCO","JAMAY"
"JALISCO","JESUS MAR?A"
"JALISCO","JILOTL?N DE LOS DOLORES"
"JALISCO","JUANACATL?N"
"JALISCO","JUCHITL?N"
"JALISCO","LA BARCA"
"JALISCO","LA HUERTA"
"JALISCO","LAGOS DE MORENO"
"JALISCO","MAGDALENA"
"JALISCO","MAZAMITLA"
"JALISCO","MEXTICACAN"
"JALISCO","MEZQUITIC"
"JALISCO","OCOTLAN"
"JALISCO","OCOTLAN"
"JALISCO","PIHUAMO"
"JALISCO","PUERTO VALLARTA"
"JALISCO","SAN CRISTOBVAL DE LA BARRANCA"
"JALISCO","SAN DIEGO DE ALEJANDR?A"
"JALISCO","SAN IGNACIO CERRO GORDO"
"JALISCO","SAN JOSE GRACIA"
"JALISCO","SAN JUAN DE LOS LAGOS"
"JALISCO","SAN JUANITO ESCOBEDO"
"JALISCO","SAN JULIAN"
"JALISCO","SAN LUIS SOYATLAN"
"JALISCO","SAN MARCOS"
"JALISCO","SAN MARTIN DE BOLA?OS"
"JALISCO","SAN MARTIN HIDALGO"
"JALISCO","SAN MIGUEL EL ALTO"
"JALISCO","SANTA ANITA"
"JALISCO","TALA"
"JALISCO","TALPA DE ALLENDE"
"JALISCO","TAPALPA"
"JALISCO","TECALITLAN"
"JALISCO","TENAMAXTLAN"
"JALISCO","TEOCALTICHE"
"JALISCO","TEPATITLAN DE MORELOS"
"JALISCO","TEQUILA"
"JALISCO","TEUCHITLAN"
"JALISCO","TIZAPAN EL ALTO"
"JALISCO","TLAJOMULCO DE Z??iga "
"JALISCO","TOLIMAN"
"JALISCO","TOMATLAN"
"JALISCO","TONAYA"
"JALISCO","TOTOTLAN"
"JALISCO","TUXCACUESCO"
"JALISCO","UNION DE SAN ANTONIO"
"JALISCO","VALLE DE GUADALUPE"
"JALISCO","VALLE DE JUAREZ"
"JALISCO","VILLA GUERRERO"
"JALISCO","VILLA HIDALGO"
"JALISCO","YAHUALICA DE GONZALEZ GALLO"
"JALISCO","ZACOALCO DE TORRES"
"JALISCO","ZAPOPAN"
"JALISCO","ZAPOTILTIC"
"JALISCO","ZAPOTITLAN"
"JALISCO","ZAPOTLAN DEL REY"
"JALISCO","ZAPOTLANEJO"
"MICHOACAN","APATZINGAN"
"MICHOACAN","CD. HIDALGO"
"MICHOACAN","LA PIEDAD"
"MICHOACAN","LAZARO CARDENAS"
"MICHOACAN","LOS REYES"
"MICHOACAN","MORELIA"
"MICHOACAN","PATZCUARO"
"MICHOACAN","SAHUAYO"
"MICHOACAN","URUAPAN"
"MICHOACAN","ZACAPU"
"MICHOACAN","ZAMORA"
"MICHOACAN","ZITACUARO"
"MICHOACAN","ZITACUARO"
"MORELOS","CUAUTLA"
"MORELOS","CUERNAVACA"
"MORELOS","JIUTEPEC"
"NAYARIT","OAXACA DE JUAREZ"
"NAYARIT","SANTIAGO IXCUINTLA"
"NAYARIT","TEPIC"
"NUEVO LEON","ANAHUAC"
"NUEVO LEON","APODACA"
"NUEVO LEON","COLOMBIA"
"NUEVO LEON","ESCOBEDO"
"NUEVO LEON","GUADALUPE (HACIENDA DE GUADALUPE, LA)"
"NUEVO LEON","GUADALUPE"
"NUEVO LEON","MONTEMORELOS"
"NUEVO LEON","MONTERREY"
"NUEVO LEON","MONTERREY"
"NUEVO LEON","MONTERREY"
"NUEVO LEON","MONTERREY"
"NUEVO LEON","MONTERREY"
"NUEVO LEON","MONTERREY"
"NUEVO LEON","MONTERREY"
"NUEVO LEON","MONTERREY"
"NUEVO LEON","SAN PEDRO GARZA GARCIA"
"NUEVO LEON","SAN PEDRO GARZA GARCIA"
"NUEVO LEON","SAN PEDRO GARZA GARCIA"
"NUEVO LEON","SAN PEDRO GARZA GARCIA"
"NUEVO LEON","SAN PEDRO GARZA GARCIA"
"NUEVO LEON","SAN PEDRO GARZA GARCIA"
"NUEVO LEON","SAN PEDRO GARZA GARCIA"
"OAXACA","HUAJUAPAN DE LEON"
"OAXACA","HUATULCO"
"OAXACA","JUCHITAN DE ZARAGOZA"
"OAXACA","OAXACA DE JUAREZ"
"OAXACA","OAXACAACA DE JUAREZ"
"OAXACA","PUERTO ESCONDIDO"
"OAXACA","SALINA CRUZ"
"OAXACA","SANTA CRUZ XOXOCOTLAN"
"OAXACA","SANTA MARIA HUATULCO"
"OAXACA","TUXTEPEC"
"PUEBLA","ATLIXCO"
"PUEBLA","CHIGNAHUAPAN"
"PUEBLA","HUAUCHINANGO"
"PUEBLA","IZUCAR DE MATAMOROS"
"PUEBLA","PUEBLA"
"PUEBLA","SAN MARTIN TEXMELUCAN"
"PUEBLA","TEHUACAN"
"PUEBLA","TEPEACA"
"PUEBLA","TEZIUTLAN"
"QUERETARO","EL MARQUES"
"QUERETARO","OAXACA DE JUAREZ"
"QUERETARO","QUERETARO"
"QUERETARO","SAN JUAN DEL RIO"
"QUINTANA ROO","CANCUN"
"QUINTANA ROO","CAOBAS"
"QUINTANA ROO","CHETUMAL"
"QUINTANA ROO","COZUMEL"
"QUINTANA ROO","DZIUCHE"
"QUINTANA ROO","OAXACA DE JUAREZ"
"QUINTANA ROO","OTHON P BLANCO"
"QUINTANA ROO","OTHON P BLANCO"
"QUINTANA ROO","PLAYA DEL CARMEN"
"QUINTANA ROO","PUERTO MORELOS"
"SAN LUIS POTOSI","CD. VALLES"
"SAN LUIS POTOSI","MATEHUALA"
"SAN LUIS POTOSI","OAXACA DE JUAREZ"
"SAN LUIS POTOSI","RIO VERDE"
"SAN LUIS POTOSI","SAN LUIS POTOSI"
"SINALOA","CULIACAN"
"SINALOA","EL ROSARIO"
"SINALOA","GUAMUCHIL"
"SINALOA","GUASAVE"
"SINALOA","LOS MOCHIS"
"SINALOA","MAZATLAN"
"SINALOA","NAVOLATO"
"SINALOA","OAXACA DE JUAREZ"
"SINALOA","TOPOLOBAMPO"
"SONORA","AGUA PRIETA"
"SONORA","CABORCA"
"SONORA","CANANEA"
"SONORA","CD. OBREGON"
"SONORA","COLORADA"
"SONORA","CULTURA"
"SONORA","EMPALME"
"SONORA","GUAYMAS"
"SONORA","HERMOSILLO"
"SONORA","IMURIS"
"SONORA","MAGDALENA DE KINO"
"SONORA","MOCTEZUMA"
"SONORA","NACO"
"SONORA","NACOZARI DE GARCIA"
"SONORA","NAVOJOA"
"SONORA","NOGALES"
"SONORA","OAXACA DE JUAREZ"
"SONORA","PUERTO PE?ASCO"
"SONORA","SAN LUIS RIO COLORADO"
"SONORA","SONOYTA"
"TABASCO","CARDENAS"
"TABASCO","COMALCALCO"
"TABASCO","CUNDUACAN"
"TABASCO","EMILIANO ZAPATA"
"TABASCO","FRONTERA"
"TABASCO","JALAPA"
"TABASCO","JALPA"
"TABASCO","NACAJUCA"
"TABASCO","OAXACA DE JUAREZ"
"TABASCO","PARAISO"
"TABASCO","TENOSIQUE DE PINO SUAREZ"
"TABASCO","VILLAHERMOSA"
"TAMAULIPAS","ALTAMIRA"
"TAMAULIPAS","CAMARGO"
"TAMAULIPAS","CD. MANTE"
"TAMAULIPAS","CD. MIGUEL ALEMAN"
"TAMAULIPAS","CD. VICTORIA"
"TAMAULIPAS","CIUDAD MANTE"
"TAMAULIPAS","CIUDAD VICTORIA"
"TAMAULIPAS","GUSTAVO DIAZ ORDAZ"
"TAMAULIPAS","GUSTAVO DIAZ ORDAZ"
"TAMAULIPAS","MATAMOROS"
"TAMAULIPAS","MIGUEL ALEMAN"
"TAMAULIPAS","NUEVA CIUDAD GUERRERO"
"TAMAULIPAS","NUEVO LAREDO"
"TAMAULIPAS","REYNOSA"
"TAMAULIPAS","RIO BRAVO"
"TAMAULIPAS","SAN FERNANDO"
"TAMAULIPAS","TAMPICO"
"TLAXCALA","OAXACA DE JUAREZ"
"TLAXCALA","TLAXCALA"
"TLAXCALA","TLAXCALA"
"VERACRUZ","ACAYUCAN"
"VERACRUZ","ALVARADO"
"VERACRUZ","BOCA DEL RIO"
"VERACRUZ","COATZACOALCOS"
"VERACRUZ","CORDOBA"
"VERACRUZ","COSAMALOAPAN"
"VERACRUZ","COSOLEACAQUE"
"VERACRUZ","HUATUSCO DE CHICUELLAR"
"VERACRUZ","JALAPA"
"VERACRUZ","MARTINEZ DE LA TORRE"
"VERACRUZ","NARANJOS"
"VERACRUZ","OAXACA DE JUAREZ"
"VERACRUZ","ORIZABA"
"VERACRUZ","PANUCO"
"VERACRUZ","POZA RICA"
"VERACRUZ","SAN ANDRES TUXTLA"
"VERACRUZ","TUXPAN"
"VERACRUZ","VERACRUZ"
"VERACRUZ","XALAPA"
"YUCATAN","MERIDA"
"YUCATAN","OAXACA DE JUAREZ"
"YUCATAN","PROGRESO"
"YUCATAN","VALLADOLID"
"ZACATECAS","FRESNILLO"
"ZACATECAS","GUADALUPE"
"ZACATECAS","OAXACA DE JUAREZ"
"ZACATECAS","ZACATECAS"
